[
  {
    "id": 1,
    "name": "list 1",
    "items": [
      {
        "id": 654,
        "description": "Do nothing now",
        "completed": false
      },
      {
        "id": 64,
        "description": "Row row",
        "completed": false
      },
      {
        "id": 54,
        "description": "Do babbbbbbb",
        "completed": false
      },
      {
        "id": 154,
        "description": "Go on and on",
        "completed": false
      },
      {
        "id": 6589,
        "description": "Yummy",
        "completed": false
      }
    ]
  },
  {
    "id": 9,
    "name": "list 9",
    "items": [
      {
        "id": 64,
        "description": "Row row",
        "completed": false
      },
      {
        "id": 54,
        "description": "Do babbbbbbb",
        "completed": false
      },
      {
        "id": 154,
        "description": "Go on and on",
        "completed": false
      },
      {
        "id": 6589,
        "description": "Yummy",
        "completed": false
      }
    ]
  },
  {
    "id": 8,
    "name": "list 8",
    "items": [
      {
        "id": 654,
        "description": "Do nothing now",
        "completed": false
      },
      {
        "id": 154,
        "description": "Go on and on",
        "completed": false
      },
      {
        "id": 6589,
        "description": "Yummy",
        "completed": false
      }
    ]
  },
  {
    "id": 56,
    "name": "list 56",
    "items": [
      {
        "id": 654,
        "description": "Do nothing now",
        "completed": false
      },
      {
        "id": 64,
        "description": "Row row",
        "completed": false
      },
      {
        "id": 54,
        "description": "Do babbbbbbb",
        "completed": false
      },
      {
        "id": 154,
        "description": "Go on and on",
        "completed": false
      }
    ]
  }
]
